{
    "_meta": {
        "success": true,
        "code": 200,
        "message": "OK. Response is updated",
        "totalCount": 1531,
        "pageCount": 77,
        "currentPage": 1,
        "perPage": 20,
        "rateLimit": {
            "limit": 30,
            "remaining": 29,
            "reset": 2
        }
    },
    "result": [{
        "id": "1",
        "first_name": "Clementina 123 Soham",
        "last_name": "Borer",
        "gender": "female",
        "dob": "2017-06-13",
        "email": "jabari.koch@example.com",
        "phone": "+19823438017",
        "website": "http://kohler.net/",
        "address": "7656 Clair Mission\nWest Candice, ND 01665",
        "status": "inactive",
        "_links": {
            "self": {
                "href": "https://gorest.co.in/public-api/users/1"
            },
            "edit": {
                "href": "https://gorest.co.in/public-api/users/1"
            },
            "avatar": {
                "href": "https://lorempixel.com/250/250/people/?19115"
            }
        }
    }, {
        "id": "2",
        "first_name": "Jade Soham",
        "last_name": "Mitchell",
        "gender": "female",
        "dob": "1975-08-17",
        "email": "zella01@example.org",
        "phone": "+1.593.512.4787",
        "website": "http://www.pagac.com/est-suscipit-voluptates-commodi-aut-adipisci.html",
        "address": "22251 Medhurst Fort Apt. 941\nWunschside, TX 68901",
        "status": "active",
        "_links": {
            "self": {
                "href": "https://gorest.co.in/public-api/users/2"
            },
            "edit": {
                "href": "https://gorest.co.in/public-api/users/2"
            },
            "avatar": {
                "href": "https://lorempixel.com/250/250/people/?42985"
            }
        }
    }, {
        "id": "3",
        "first_name": "Katharina Soham",
        "last_name": "Dibbert",
        "gender": "female",
        "dob": "1954-07-13",
        "email": "anjali.wolff@example.com",
        "phone": "535-598-4872 x27366",
        "website": "http://beier.com/",
        "address": "221 Cremin Spurs Suite 509\nHacketttown, MI 99862-9939",
        "status": "active",
        "_links": {
            "self": {
                "href": "https://gorest.co.in/public-api/users/3"
            },
            "edit": {
                "href": "https://gorest.co.in/public-api/users/3"
            },
            "avatar": {
                "href": "https://lorempixel.com/250/250/people/?45570"
            }
        }
    }, {
        "id": "4",
        "first_name": "Erika Soham",
        "last_name": "Rau",
        "gender": "female",
        "dob": "1955-09-15",
        "email": "hheathcote@example.net",
        "phone": "863-995-0626 x44514",
        "website": "http://www.cole.com/quaerat-quos-dolores-ad",
        "address": "2308 Jackson Skyway\nWest Layne, MT 51388",
        "status": "inactive",
        "_links": {
            "self": {
                "href": "https://gorest.co.in/public-api/users/4"
            },
            "edit": {
                "href": "https://gorest.co.in/public-api/users/4"
            },
            "avatar": {
                "href": "https://lorempixel.com/250/250/people/?64015"
            }
        }
    }, {
        "id": "5",
        "first_name": "Carmella Soham",
        "last_name": "Hudson",
        "gender": "female",
        "dob": "1986-11-19",
        "email": "rene95@example.net",
        "phone": "571.525.6644 x9954",
        "website": "http://rempel.info/autem-sed-dicta-fugiat-velit-molestiae-inventore-in",
        "address": "484 Block Road\nNew Jeanetteside, MD 88584",
        "status": "active",
        "_links": {
            "self": {
                "href": "https://gorest.co.in/public-api/users/5"
            },
            "edit": {
                "href": "https://gorest.co.in/public-api/users/5"
            },
            "avatar": {
                "href": "https://lorempixel.com/250/250/people/?18928"
            }
        }
    }, {
        "id": "6",
        "first_name": "Lucius Soham",
        "last_name": "Huels",
        "gender": "male",
        "dob": "1967-04-22",
        "email": "purdy.akeem@example.net",
        "phone": "(331) 662-7797 x054",
        "website": "http://langworth.net/",
        "address": "115 Winnifred Trail Apt. 875\nPort Piper, ID 79859-3754",
        "status": "inactive",
        "_links": {
            "self": {
                "href": "https://gorest.co.in/public-api/users/6"
            },
            "edit": {
                "href": "https://gorest.co.in/public-api/users/6"
            },
            "avatar": {
                "href": "https://lorempixel.com/250/250/people/?50281"
            }
        }
    }, {
        "id": "7",
        "first_name": "Alysson Soham",
        "last_name": "Champlin",
        "gender": "female",
        "dob": "1977-07-16",
        "email": "emmerich.hertha@example.com",
        "phone": "+1.962.266.4596",
        "website": "http://schumm.org/eaque-voluptate-cumque-ex-exercitationem.html",
        "address": "945 Rodriguez Wells Apt. 641\nRatkeborough, NM 59825-5457",
        "status": "inactive",
        "_links": {
            "self": {
                "href": "https://gorest.co.in/public-api/users/7"
            },
            "edit": {
                "href": "https://gorest.co.in/public-api/users/7"
            },
            "avatar": {
                "href": "https://lorempixel.com/250/250/people/?90798"
            }
        }
    }, {
        "id": "8",
        "first_name": "Juston Soham",
        "last_name": "Haley",
        "gender": "male",
        "dob": "2008-03-20",
        "email": "elias.marquardt@example.org",
        "phone": "931-866-9233",
        "website": "http://www.fisher.biz/",
        "address": "1848 Ruben Divide\nWest Nathanaelhaven, OK 52241-2749",
        "status": "inactive",
        "_links": {
            "self": {
                "href": "https://gorest.co.in/public-api/users/8"
            },
            "edit": {
                "href": "https://gorest.co.in/public-api/users/8"
            },
            "avatar": {
                "href": "https://lorempixel.com/250/250/people/?78996"
            }
        }
    }, {
        "id": "9",
        "first_name": "Loraine Soham",
        "last_name": "Kulas",
        "gender": "female",
        "dob": "1990-09-05",
        "email": "magdalena09@example.com",
        "phone": "290.271.0518",
        "website": "http://www.schiller.com/",
        "address": "3102 Miguel Trace\nLake Monroetown, UT 15894-4042",
        "status": "inactive",
        "_links": {
            "self": {
                "href": "https://gorest.co.in/public-api/users/9"
            },
            "edit": {
                "href": "https://gorest.co.in/public-api/users/9"
            },
            "avatar": {
                "href": "https://lorempixel.com/250/250/people/?60446"
            }
        }
    }, {
        "id": "10",
        "first_name": "Nash Soham",
        "last_name": "Lynch",
        "gender": "male",
        "dob": "1984-11-01",
        "email": "krystal96@example.net",
        "phone": "+1-756-529-9795",
        "website": "http://kessler.org/ullam-porro-quia-temporibus-ad-et-unde-voluptates",
        "address": "194 Rippin Estates Suite 838\nPort Uliseston, NE 77974",
        "status": "active",
        "_links": {
            "self": {
                "href": "https://gorest.co.in/public-api/users/10"
            },
            "edit": {
                "href": "https://gorest.co.in/public-api/users/10"
            },
            "avatar": {
                "href": "https://lorempixel.com/250/250/people/?33012"
            }
        }
    }, {
        "id": "11",
        "first_name": "Estell Soham",
        "last_name": "Hessel",
        "gender": "female",
        "dob": "1986-10-29",
        "email": "camille28@example.com",
        "phone": "+1-286-537-5652",
        "website": "http://www.oreilly.com/",
        "address": "974 Carroll Brook Suite 817\nSimview, MT 57772-1910",
        "status": "active",
        "_links": {
            "self": {
                "href": "https://gorest.co.in/public-api/users/11"
            },
            "edit": {
                "href": "https://gorest.co.in/public-api/users/11"
            },
            "avatar": {
                "href": "https://lorempixel.com/250/250/people/?90351"
            }
        }
    }, {
        "id": "12",
        "first_name": "Marlon Soham",
        "last_name": "Orn",
        "gender": "male",
        "dob": "1937-07-10",
        "email": "fabiola60@example.com",
        "phone": "1-250-623-8635 x450",
        "website": "http://www.boehm.biz/excepturi-laudantium-culpa-qui-et",
        "address": "228 Geovany Street\nWest Camryn, WA 27288-8210",
        "status": "inactive",
        "_links": {
            "self": {
                "href": "https://gorest.co.in/public-api/users/12"
            },
            "edit": {
                "href": "https://gorest.co.in/public-api/users/12"
            },
            "avatar": {
                "href": "https://lorempixel.com/250/250/people/?45469"
            }
        }
    }, {
        "id": "13",
        "first_name": "Estevan Soham",
        "last_name": "Strosin",
        "gender": "male",
        "dob": "1995-03-17",
        "email": "goodwin.bridgette@example.org",
        "phone": "(919) 955-7713 x305",
        "website": "https://www.altenwerth.biz/facere-veniam-incidunt-nihil-corporis-odio",
        "address": "308 Conor Islands\nWest Eliseo, NY 33411-4666",
        "status": "active",
        "_links": {
            "self": {
                "href": "https://gorest.co.in/public-api/users/13"
            },
            "edit": {
                "href": "https://gorest.co.in/public-api/users/13"
            },
            "avatar": {
                "href": "https://lorempixel.com/250/250/people/?90182"
            }
        }
    }, {
        "id": "14",
        "first_name": "Hillary Soham",
        "last_name": "Jakubowski",
        "gender": "female",
        "dob": "2008-01-28",
        "email": "yschroeder@example.com",
        "phone": "453.885.4100",
        "website": "http://www.ryan.com/quia-quaerat-a-in-et-nostrum-officia-sint",
        "address": "11056 Retha Burgs\nWest Eulah, FL 61622",
        "status": "inactive",
        "_links": {
            "self": {
                "href": "https://gorest.co.in/public-api/users/14"
            },
            "edit": {
                "href": "https://gorest.co.in/public-api/users/14"
            },
            "avatar": {
                "href": "https://lorempixel.com/250/250/people/?92562"
            }
        }
    }, {
        "id": "15",
        "first_name": "Gonzalo Soham",
        "last_name": "Willms",
        "gender": "male",
        "dob": "2019-03-04",
        "email": "davis.rahul@example.net",
        "phone": "+1-796-760-8016",
        "website": "http://www.harris.info/",
        "address": "614 Cassin Loop Apt. 309\nSouth Connie, ME 22522-6668",
        "status": "active",
        "_links": {
            "self": {
                "href": "https://gorest.co.in/public-api/users/15"
            },
            "edit": {
                "href": "https://gorest.co.in/public-api/users/15"
            },
            "avatar": {
                "href": "https://lorempixel.com/250/250/people/?98755"
            }
        }
    }, {
        "id": "16",
        "first_name": "Martine Soham",
        "last_name": "Miller",
        "gender": "female",
        "dob": "1940-09-05",
        "email": "fkshlerin@example.com",
        "phone": "1-869-570-8018 x695",
        "website": "http://toy.biz/voluptate-atque-consectetur-minima-debitis-inventore-consectetur",
        "address": "349 Claude Loaf\nNorth Darwinstad, PA 75886-0678",
        "status": "active",
        "_links": {
            "self": {
                "href": "https://gorest.co.in/public-api/users/16"
            },
            "edit": {
                "href": "https://gorest.co.in/public-api/users/16"
            },
            "avatar": {
                "href": "https://lorempixel.com/250/250/people/?35822"
            }
        }
    }, {
        "id": "17",
        "first_name": "Jessika Soham",
        "last_name": "Cartwright",
        "gender": "female",
        "dob": "1999-08-16",
        "email": "karlee.powlowski@example.net",
        "phone": "649.459.7345 x58799",
        "website": "http://fay.com/ut-vel-voluptatem-velit-ut-culpa.html",
        "address": "7223 Ottilie Ferry Apt. 454\nEast Dantefort, MN 00667-7308",
        "status": "active",
        "_links": {
            "self": {
                "href": "https://gorest.co.in/public-api/users/17"
            },
            "edit": {
                "href": "https://gorest.co.in/public-api/users/17"
            },
            "avatar": {
                "href": "https://lorempixel.com/250/250/people/?87289"
            }
        }
    }, {
        "id": "18",
        "first_name": "Nelda Soham",
        "last_name": "Haag",
        "gender": "female",
        "dob": "1994-11-05",
        "email": "hickle.alene@example.net",
        "phone": "(251) 426-0729",
        "website": "http://www.hamill.com/et-aut-deleniti-debitis",
        "address": "232 Alicia Crescent\nWest Malinda, ME 43195-4897",
        "status": "inactive",
        "_links": {
            "self": {
                "href": "https://gorest.co.in/public-api/users/18"
            },
            "edit": {
                "href": "https://gorest.co.in/public-api/users/18"
            },
            "avatar": {
                "href": "https://lorempixel.com/250/250/people/?93357"
            }
        }
    }, {
        "id": "19",
        "first_name": "Judd Soham",
        "last_name": "Cole",
        "gender": "male",
        "dob": "2009-12-30",
        "email": "lois.donnelly@example.org",
        "phone": "789.304.1436 x606",
        "website": "http://www.kertzmann.com/",
        "address": "4613 Johnston Islands Apt. 964\nNew Major, CT 49129",
        "status": "inactive",
        "_links": {
            "self": {
                "href": "https://gorest.co.in/public-api/users/19"
            },
            "edit": {
                "href": "https://gorest.co.in/public-api/users/19"
            },
            "avatar": {
                "href": "https://lorempixel.com/250/250/people/?98812"
            }
        }
    }, {
        "id": "20",
        "first_name": "Suzanne Soham",
        "last_name": "Zulauf",
        "gender": "female",
        "dob": "1928-10-07",
        "email": "rohan.lonnie@example.com",
        "phone": "+1-449-331-5722",
        "website": "http://waters.com/",
        "address": "646 Alexys Fall Suite 379\nRolandostad, FL 96285-7910",
        "status": "inactive",
        "_links": {
            "self": {
                "href": "https://gorest.co.in/public-api/users/20"
            },
            "edit": {
                "href": "https://gorest.co.in/public-api/users/20"
            },
            "avatar": {
                "href": "https://lorempixel.com/250/250/people/?36262"
            }
        }
    }]
}

